DSCO-3/Lab5/Q3/Dec4to16_tb.vcd
$date
	Sat Oct  1 16:42:28 2022
$end
$version
	Icarus Verilog
$end
$timescale
	1ns
$end
$scope module dec4to16_tb $end
$var wire 16 ! Y [15:0] $end
$var reg 4 " W [3:0] $end
$scope module dec4to16 $end
$var wire 4 # W [3:0] $end
$var wire 4 $ e [3:0] $end
$var wire 16 % Y [15:0] $end
$scope module s0 $end
$var wire 2 & A [1:0] $end
$var wire 1 ' En $end
$var reg 4 ( D [3:0] $end
$upscope $end
$scope module s1 $end
$var wire 2 ) A [1:0] $end
$var wire 1 * En $end
$var reg 4 + D [3:0] $end
$upscope $end
$scope module s2 $end
$var wire 2 , A [1:0] $end
$var wire 1 - En $end
$var reg 4 . D [3:0] $end
$upscope $end
$scope module s3 $end
$var wire 2 / A [1:0] $end
$var wire 1 0 En $end
$var reg 4 1 D [3:0] $end
$upscope $end
$scope module s4 $end
$var wire 2 2 A [1:0] $end
$var wire 1 3 En $end
$var reg 4 4 D [3:0] $end
$upscope $end
$upscope $end
$upscope $end
$enddefinitions $end
#0
$dumpvars
b1111 4
03
b0 2
b1111 1
00
b0 /
b1111 .
0-
b0 ,
b1110 +
1*
b0 )
b1110 (
1'
b0 &
b1111111111111110 %
b1110 $
b0 #
b0 "
b1111111111111110 !
$end
#20
b1111111111111101 !
b1111111111111101 %
b1101 +
b1 )
b1 ,
b1 /
b1 2
b1 "
b1 #
#40
b1111111111111011 !
b1111111111111011 %
b1011 +
b10 )
b10 ,
b10 /
b10 2
b10 "
b10 #
#60
b1111111111110111 !
b1111111111110111 %
b111 +
b11 )
b11 ,
b11 /
b11 2
b11 "
b11 #
#80
b1110 .
1-
0*
b1101 $
b1101 (
b1111111111101111 !
b1111111111101111 %
b1111 +
b1 &
b0 )
b0 ,
b0 /
b0 2
b100 "
b100 #
#100
b1111111111011111 !
b1111111111011111 %
b1101 .
b1 )
b1 ,
b1 /
b1 2
b101 "
b101 #
#120
b1111111110111111 !
b1111111110111111 %
b1011 .
b10 )
b10 ,
b10 /
b10 2
b110 "
b110 #
#140
b1111111101111111 !
b1111111101111111 %
b111 .
b11 )
b11 ,
b11 /
b11 2
b111 "
b111 #
#160
b1110 1
10
0-
b1011 $
b1011 (
b1111111011111111 !
b1111111011111111 %
b1111 .
b10 &
b0 )
b0 ,
b0 /
b0 2
b1000 "
b1000 #
#180
b1111110111111111 !
b1111110111111111 %
b1101 1
b1 )
b1 ,
b1 /
b1 2
b1001 "
b1001 #
#200
b1111101111111111 !
b1111101111111111 %
b1011 1
b10 )
b10 ,
b10 /
b10 2
b1010 "
b1010 #
#220
b1111011111111111 !
b1111011111111111 %
b111 1
b11 )
b11 ,
b11 /
b11 2
b1011 "
b1011 #
#240
b1110 4
13
00
b111 $
b111 (
b1110111111111111 !
b1110111111111111 %
b1111 1
b11 &
b0 )
b0 ,
b0 /
b0 2
b1100 "
b1100 #
#260
b1101111111111111 !
b1101111111111111 %
b1101 4
b1 )
b1 ,
b1 /
b1 2
b1101 "
b1101 #
#280
b1011111111111111 !
b1011111111111111 %
b1011 4
b10 )
b10 ,
b10 /
b10 2
b1110 "
b1110 #
#300
b111111111111111 !
b111111111111111 %
b111 4
b11 )
b11 ,
b11 /
b11 2
b1111 "
b1111 #
